10
1 -1
1.22222222222222 -0.800905653988556
1.44444444444444 -0.645439384117868
1.66666666666667 -0.525650427753607
1.88888888888889 -0.433302984378819
2.11111111111111 -0.361575722418096
2.33333333333333 -0.305266231523171
2.55555555555556 -0.260533157359538
2.77777777777778 -0.224568146129335
3 -0.19531583914707
